Malcolm J. Mashig
…
Read in the csv you downloaded from the UI. Swap my local path with your local path.

csv <- "YOUR/LOCAL/CSV/PATH"
csv <- "https://raw.githubusercontent.com/MalcolmMashig/google-trends/master/multiTimeline-37.csv"
raw_google_trends <- read_csv(csv, skip = 2)
raw_google_trends

## # A tibble: 117 x 6
##    Week       `the juice laundry: (… `"the juice laundry":… `juice laundry: (Un…
##    <date>                      <dbl>                  <dbl>                <dbl>
##  1 2016-10-09                     10                      0                   10
##  2 2016-10-16                      0                      0                   31
##  3 2016-10-23                      0                      0                   10
##  4 2016-10-30                      0                      0                   39
##  5 2016-11-06                      0                      0                    0
##  6 2016-11-13                      0                     20                   10
##  7 2016-11-20                      0                      0                    0
##  8 2016-11-27                      0                      0                   28
##  9 2016-12-04                      0                      0                  100
## 10 2016-12-11                     19                      9                   38
## # … with 107 more rows, and 2 more variables:
## #   "juice laundry": (United States) <dbl>,
## #   The Juice Laundry: (United States) <dbl>
…
Based on the method found here, the following code will average the relative interests (hits) for each week and search term among all samples.

gtrends.list <- list(X1, X2, X3, X4, X5, X6, X7, X8, X9, X10, X11, X12, X13)
gtrends_averaged <- Reduce('+', gtrends.list) / length(gtrends.list)
gtrends_averaged %>% as_tibble()

## # A tibble: 585 x 1
##     hits
##    <dbl>
##  1 10.7 
##  2 20.2 
##  3 17.8 
##  4 11.8 
##  5  3.85
##  6 14.2 
##  7 16.9 
##  8 12.9 
##  9 35.5 
## 10 21.4 
## # … with 575 more rows
…
Comparision via Correlation:

While one of the search terms (“juice laundry” in my case) may clearly appear the most similar to the TJL topic, there are systematic and reproducible ways of checking.

We must un-tidy it with spread to check the correlations of the different search_terms with the topic term.

y <- sample_average %>% spread(key = "search_term", value = "average_relative_interest")
y

## # A tibble: 117 x 6
##    week_of    `"Juice Laundry… `"The Juice Lau… `Juice Laundry` `The Juice Laun…
##    <date>                <dbl>            <dbl>           <dbl>            <dbl>
##  1 2016-10-09             8.15            5.77             24.8            11.8 
##  2 2016-10-16            20.2             4.15             27.3             4.15
##  3 2016-10-23            17.8             5.46             25.9            11.2 
##  4 2016-10-30            11.8             0.769            34.5             3.23
##  5 2016-11-06             3.85            0                12.8             9.38
##  6 2016-11-13            14.2             8.85             28.7            10.7 
##  7 2016-11-20            16.9             8.92             18.3             8.92
##  8 2016-11-27            12.9             2.92             25.8             2.92
##  9 2016-12-04            38.8             0                58.6             0   
## 10 2016-12-11            21.4             6.62             26.7            10.6 
## # … with 107 more rows, and 1 more variable: TJL Topic <dbl>
…
